iid,Q1,Q2,pop,region
ME699,0.000010,0.999990,Half_Elven1,Half_Elven
ME700,0.103737,0.896263,Half_Elven1,Half_Elven
ME701,0.152744,0.847256,Half_Elven1,Half_Elven
ME702,0.127725,0.872275,Half_Elven1,Half_Elven
ME703,0.068064,0.931936,Half_Elven1,Half_Elven
ME704,0.190165,0.809835,Half_Elven1,Half_Elven
ME705,0.106516,0.893484,Half_Elven1,Half_Elven
ME706,0.142700,0.857300,Half_Elven1,Half_Elven
ME707,0.112547,0.887453,Half_Elven1,Half_Elven
ME708,0.177637,0.822363,Half_Elven1,Half_Elven
ME709,0.075081,0.924919,Half_Elven1,Half_Elven
ME710,0.000010,0.999990,Half_Elven1,Half_Elven
ME711,0.000010,0.999990,Half_Elven1,Half_Elven
ME712,0.119393,0.880607,Half_Elven1,Half_Elven
ME713,0.145558,0.854442,Half_Elven1,Half_Elven
ME714,0.174340,0.825660,Half_Elven1,Half_Elven
ME715,0.047766,0.952234,Half_Elven1,Half_Elven
ME716,0.085603,0.914397,Half_Elven1,Half_Elven
ME717,0.097442,0.902558,Half_Elven1,Half_Elven
ME718,0.000010,0.999990,Half_Elven1,Half_Elven
ME719,0.111929,0.888071,Half_Elven1,Half_Elven
ME720,0.083862,0.916138,Half_Elven1,Half_Elven
ME721,0.022143,0.977857,Half_Elven1,Half_Elven
ME722,0.178488,0.821512,Half_Elven1,Half_Elven
ME723,0.336790,0.663210,Half_Elven1,Half_Elven
ME724,0.281200,0.718800,Half_Elven1,Half_Elven
ME725,0.297235,0.702765,Half_Elven1,Half_Elven
ME726,0.223581,0.776419,Half_Elven1,Half_Elven
ME727,0.410075,0.589925,Half_Elven1,Half_Elven
ME728,0.330494,0.669506,Half_Elven1,Half_Elven
ME729,0.999990,0.000010,Half_Elven1,Half_Elven
ME730,0.999990,0.000010,Half_Elven1,Half_Elven
ME731,0.225669,0.774331,Half_Elven1,Half_Elven
ME732,0.999990,0.000010,Half_Elven1,Half_Elven
ME733,0.999990,0.000010,Half_Elven1,Half_Elven
ME734,0.391721,0.608279,Half_Elven1,Half_Elven
ME735,0.290873,0.709127,Half_Elven1,Half_Elven
ME736,0.574185,0.425815,Half_Elven1,Half_Elven
ME737,0.354840,0.645160,Half_Elven1,Half_Elven
ME738,0.999990,0.000010,Half_Elven1,Half_Elven
ME739,0.999990,0.000010,Half_Elven1,Half_Elven
ME740,0.547156,0.452844,Half_Elven1,Half_Elven
ME741,0.289669,0.710331,Half_Elven1,Half_Elven
ME742,0.265375,0.734625,Half_Elven1,Half_Elven
ME743,0.269881,0.730119,Half_Elven1,Half_Elven
ME744,0.084573,0.915427,Half_Elven1,Half_Elven
ME745,0.165474,0.834526,Half_Elven1,Half_Elven
ME746,0.148844,0.851156,Half_Elven1,Half_Elven
ME747,0.000010,0.999990,Half_Elven1,Half_Elven
ME748,0.000010,0.999990,Half_Elven1,Half_Elven
ME749,0.136242,0.863758,Half_Elven1,Half_Elven
ME750,0.111493,0.888507,Half_Elven1,Half_Elven
ME751,0.056694,0.943306,Half_Elven1,Half_Elven
ME752,0.195030,0.804970,Half_Elven1,Half_Elven
ME753,0.219507,0.780493,Half_Elven1,Half_Elven
ME754,0.184583,0.815417,Half_Elven1,Half_Elven
ME755,0.106555,0.893445,Half_Elven1,Half_Elven
ME756,0.138895,0.861105,Half_Elven1,Half_Elven
ME757,0.116736,0.883264,Half_Elven1,Half_Elven
ME758,0.146601,0.853399,Half_Elven1,Half_Elven
ME759,0.047967,0.952033,Half_Elven1,Half_Elven
ME760,0.200898,0.799102,Half_Elven1,Half_Elven
ME761,0.219663,0.780337,Half_Elven1,Half_Elven
ME762,0.087198,0.912802,Half_Elven1,Half_Elven
ME763,0.133049,0.866951,Half_Elven1,Half_Elven
ME764,0.085688,0.914312,Half_Elven1,Half_Elven
ME765,0.080951,0.919049,Half_Elven1,Half_Elven
ME766,0.191585,0.808415,Half_Elven1,Half_Elven
ME767,0.141447,0.858553,Half_Elven1,Half_Elven
