\relax 
\@writefile{toc}{\contentsline {section}{\numberline {1}Neutral Theory Simulations}{1}}
\@writefile{lof}{\contentsline {figure}{\numberline {1}{\ignorespaces Trajectory of a community of 100 individuals (each of a different species), undergoing recruitment of offspring independent of species identity.\relax }}{1}}
\@writefile{lof}{\contentsline {figure}{\numberline {2}{\ignorespaces Trajectories of a maximum (black) and a minimal community (red) in a neutral model with speciation.\relax }}{2}}
\@writefile{lof}{\contentsline {figure}{\numberline {3}{\ignorespaces Expected distribution of species abundances (averaged over 100 samples) at equilibrium within a neutral model with random, spontaneous speciation. Species abundances are binned according to their abundance into octaves (each octave is marked with the maximum number of individuals within it).\relax }}{3}}
\@writefile{toc}{\contentsline {section}{\numberline {2}Simulations using HPC}{3}}
\@writefile{lof}{\contentsline {figure}{\numberline {4}{\ignorespaces Expected community composition at equilibrium under the assumption of ecological neutrality and spontaneous speciation at four different community sizes (total number of individuals N). Each plot represents the average of 25 independent runs with fixed community sizes and speciation rate. Species are binned as previously (Figure 3).\relax }}{4}}
\@writefile{lot}{\contentsline {table}{\numberline {1}{\ignorespaces Species abundance octaves averaged over 25 simulation runs per community size, assuming ecological neutrality and a spontaneous speciation rate of 0.004362\relax }}{4}}
\@writefile{toc}{\contentsline {section}{\numberline {3}Fractals}{4}}
\@writefile{lof}{\contentsline {figure}{\numberline {5}{\ignorespaces Fractals and other shapes drawn in R.\relax }}{6}}
